<?xml version="1.0" encoding="utf-8"?>
<!-- Generator: Adobe Illustrator 23.0.3, SVG Export Plug-In . SVG Version: 6.00 Build 0)  -->
<svg version="1.1" id="レイヤー_1" xmlns="http://www.w3.org/2000/svg" xmlns:xlink="http://www.w3.org/1999/xlink" x="0px"
	 y="0px" viewBox="0 0 768 768" style="enable-background:new 0 0 768 768;" xml:space="preserve">
<style type="text/css">
	.st0{fill:#FFFFFF;}
</style>
<title></title>
<g id="icomoon-ignore">
</g>
<path class="st0" d="M224,32c-53,0-101.1,21.5-135.8,56.2S32,171,32,224v320c0,53,21.5,101.1,56.2,135.8S171,736,224,736h320
	c53,0,101.1-21.5,135.8-56.2S736,597,736,544V224c0-53-21.5-101.1-56.2-135.8S597,32,544,32H224z M224,96h320
	c35.4,0,67.3,14.3,90.5,37.5S672,188.6,672,224v320c0,35.4-14.3,67.3-37.5,90.5S579.4,672,544,672H224c-35.4,0-67.3-14.3-90.5-37.5
	S96,579.4,96,544V224c0-35.4,14.3-67.3,37.5-90.5S188.6,96,224,96z M543.6,359.1c-4.8-31.1-18.3-59.4-38.2-82.1
	c-24.1-27.6-57.7-46.9-96.3-52.6c-14.8-2.4-31-2.5-47.3-0.1c-43.7,6.5-80.7,30.1-105,62.9s-36.3,75.1-29.8,118.8s30.1,80.7,62.9,105
	c32.8,24.4,75.1,36.3,118.8,29.8s80.7-30.1,105-62.9S550.1,402.8,543.6,359.1L543.6,359.1z M480.4,368.5
	c3.9,26.2-3.2,51.5-17.9,71.3s-36.8,33.9-63,37.8s-51.5-3.2-71.3-17.9s-33.9-36.8-37.8-63s3.2-51.5,17.9-71.3s36.8-33.9,63-37.8
	c10-1.5,19.7-1.3,27.8-0.1c23.7,3.5,43.7,15,58.2,31.6C469.3,332.9,477.5,350,480.4,368.5L480.4,368.5z M592,208
	c0-17.7-14.3-32-32-32s-32,14.3-32,32s14.3,32,32,32S592,225.7,592,208z"/>
</svg>
