<?xml version="1.0" encoding="utf-8"?>
<!-- Generator: Adobe Illustrator 23.0.3, SVG Export Plug-In . SVG Version: 6.00 Build 0)  -->
<svg version="1.1" id="レイヤー_1" xmlns="http://www.w3.org/2000/svg" xmlns:xlink="http://www.w3.org/1999/xlink" x="0px"
	 y="0px" viewBox="0 0 768 768" style="enable-background:new 0 0 768 768;" xml:space="preserve">
<style type="text/css">
	.st0{fill:#FFFFFF;}
</style>
<title></title>
<g id="icomoon-ignore">
</g>
<path class="st0" d="M690,212.4c9.2,48.9,14.3,105.4,14,164c0.6,48.9-3.9,104.5-14,160.7c-1.8,6.7-4.8,12.9-8.7,18.4
	c-7.3,10.3-17.9,18.1-30.4,21.6c-19.3,5.2-69,8.8-124.1,10.9c-71.4,2.8-142.9,2.8-142.9,2.8s-71.5,0-142.9-2.7
	c-55.1-2.1-104.7-5.7-123.7-10.8c-6.6-1.8-12.7-4.7-18.1-8.6c-10-7-17.6-17.2-21.4-29.5C68.7,490.2,63.6,433.9,64,375.6
	c-0.7-49.3,3.9-105.3,14-161.9c1.8-6.7,4.8-12.9,8.7-18.4c7.3-10.3,17.9-18.1,30.4-21.6c19.3-5.2,69-8.8,124.1-10.9
	C312.5,160,384,160,384,160s71.5,0,142.9,2.5c55,1.9,105,5.2,123.4,9.7c7,2,13.5,5.3,19.1,9.6C679.3,189.2,686.7,199.7,690,212.4
	L690,212.4z M752.3,197.7c-6.9-27.7-23-50.9-44.3-67c-11.9-9-25.5-15.8-40-20c-28.7-7-86.3-10.3-138.9-12.2C456.6,96,384,96,384,96
	s-72.7,0-145.3,2.8c-52.5,2-110.4,5.6-138.1,13c-28,7.9-50.6,24.6-66,46.4c-8.6,12.2-15,26-18.8,40.6c-0.2,0.8-0.4,1.6-0.5,2.3
	C4.3,261.8-0.7,322.4,0,376.4C-0.4,438,5.2,499,15.3,552.5c0.2,1,0.4,2,0.7,2.8c7.8,27.5,24.6,50.1,46.4,65.5
	c11.4,8.1,24.2,14.1,37.8,18c28.1,7.5,86,11.1,138.5,13.1c72.6,2.8,145.3,2.8,145.3,2.8s72.7,0,145.3-2.8c52.5-2,110.4-5.6,138.1-13
	c27.9-7.9,50.6-24.6,66-46.4c8.6-12.2,15-26,18.8-40.5c0.2-0.8,0.4-1.6,0.5-2.3c10.9-60.3,15.9-120.5,15.2-174.1
	c0.4-61.6-5.2-122.7-15.3-176.1C752.6,198.8,752.4,198.2,752.3,197.7L752.3,197.7z M344,425.6v-99.3l87.3,49.6L344,425.6z
	 M327.8,508.4l184-104.6c15.4-8.7,20.7-28.3,12-43.6c-3-5.2-7.2-9.3-12-12l-184-104.6c-15.4-8.7-34.9-3.4-43.6,12
	c-2.9,5.1-4.2,10.6-4.2,15.8v209.3c0,17.7,14.3,32,32,32C317.8,512.6,323.2,511,327.8,508.4L327.8,508.4z"/>
</svg>
