"username","active","country","parent_agent","company_name","company_addr","company_phone","tax_id","zipcode","discount_setting","comission_setting","update_date"
"ab-wadayama@g-7autoservice.co.jp","1","Japan","236","株式会社G-7・オート・サービス　オートバックス和田山店","兵庫県朝来市和田山町玉置８５２
","796733377","","669-5213","0","","2019-10-10 02:47:24"
"ab-toyooka@g-7autoservice.co.jp","1","Japan","236","株式会社G-7・オート・サービス　オートバックス豊岡店","兵庫県豊岡市船町方ケ島３４９－１
","796237800","","668-0805","0","","2019-10-10 02:48:10"
"ab-higashifukuchiyama@g-7autoservice.co.jp","1","Japan","236","株式会社G-7・オート・サービス　オートバックス東福知山店","京都府福知山市土師宮町１－１６３
","773270677","","620-0856","0","","2019-10-10 02:55:29"
"ab-kyotoayabe@g-7autoservice.co.jp","1","Japan","236","株式会社G-7・オート・サービス　オートバックス京都綾部店","京都府綾部市大島町南天田井２５番地
","773401777","","623-0046","0","","2019-10-10 02:56:10"
"ab-oomiya@g-7autoservice.co.jp","1","Japan","236","株式会社G-7・オート・サービス　オートバックス丹後大宮店","京都府京丹後市大宮町河辺３７５９－２
","772685057","","629-2502","0","","2019-10-10 02:57:24"
"ab-tamatsu@g-7autoservice.co.jp","1","Japan","236","株式会社G-7・オート・サービス　オートバックス玉津店","兵庫県神戸市西区玉津町小山２５３－１
","789273111","","651-2144","0","","2019-10-10 02:58:15"
"ab-akashi@g-7autoservice.co.jp","1","Japan","236","株式会社G-7・オート・サービス　オートバックス明石店","兵庫県明石市茶園場町１番２０号
","789180107","","673-0849","0","","2019-10-10 02:59:05"
"ab-gakuenminami@g-7autoservice.co.jp","1","Japan","236","株式会社G-7・オート・サービス　オートバックス学園南店","兵庫県神戸市垂水区小束台８６８番１０３８
","787910107","","655-0008","0","","2019-10-10 02:59:57"
"ab-sumoto@g-7autoservice.co.jp","1","Japan","236","株式会社G-7・オート・サービス　オートバックス洲本店","兵庫県南あわじ市山添１５９－１
","799450852","","656-0121","0","","2019-10-10 03:06:20"
"ab-shioyakita@g-7autoservice.co.jp","1","Japan","236","株式会社G-7・オート・サービス　オートバックス塩屋北店","兵庫県神戸市垂水区下畑町字口唐戸３３４－１
","787551881","","655-0861","0","","2019-10-10 03:07:11"
"sh-ikawadani@g-7autoservice.co.jp","1","Japan","236","株式会社G-7・オート・サービス　オートバックスセコハン市場伊川谷店","兵庫県神戸市西区伊川谷町潤和６９３－１
","789781737","","651-2124","0","","2019-10-10 03:08:03"
"ab-nakanoshima@g-7autoservice.co.jp","1","Japan","236","株式会社G-7・オート・サービス　オートバックス兵庫中之島店","兵庫県神戸市兵庫区芦原通１－１－１
","786856877","","652-0882","0","","2019-10-10 03:09:15"
"ab-suzurandai@g-7autoservice.co.jp","1","Japan","236","株式会社G-7・オート・サービス　オートバックス鈴蘭台店","兵庫県神戸市北区北五葉６－１４－１
","785943481","","651-1131","0","","2019-10-10 03:09:58"
"ab-kitarokou@g-7autoservice.co.jp","1","Japan","236","株式会社G-7・オート・サービス　オートバックス北六甲店","兵庫県神戸市北区藤原台北町６－２０－１
","789823177","","651-1301","0","","2019-10-10 03:11:14"
"sa-kobe1@g-7autoservice.co.jp","1","Japan","236","株式会社G-7・オート・サービス　スーパーオートバックスサンシャイン神戸店","兵庫県神戸市東灘区青木１－２－３４
","784356006","","658-0027","0","","2019-10-10 03:12:08"
"ab-nishikoya@g-7autoservice.co.jp","1","Japan","236","株式会社G-7・オート・サービス　オートバックス西昆陽店","兵庫県尼崎市西昆陽２－１－３０
","664390107","","661-0047","0","","2019-10-10 03:14:29"
"ab-takarazuka@g-7autoservice.co.jp","1","Japan","236","株式会社G-7・オート・サービス　オートバックスタカラヅカ店","兵庫県宝塚市安倉中４丁目１９番１５号
","797875630","","665-0822","0","","2019-10-10 03:21:45"
"ab-yamamoto@g-7autoservice.co.jp","1","Japan","236","株式会社G-7・オート・サービス　オートバックス宝塚山本店","兵庫県宝塚市山本南２丁目２６番
","797898034","","665-0882","0","","2019-10-10 03:25:06"
"ab-itami@g-7autoservice.co.jp","1","Japan","236","株式会社G-7・オート・サービス　オートバックス伊丹店","兵庫県伊丹市北伊丹５－９６－１
","727711880","","664-0831","0","","2019-10-10 03:25:55"
"ab-inagawa@g-7autoservice.co.jp","1","Japan","236","株式会社G-7・オート・サービス　オートバックス猪名川店","兵庫県川辺郡猪名川町若葉１－２－３
","727673335","","666-0251","0","","2019-10-10 03:27:15"
"ab-kameoka@g-7autoservice.co.jp","1","Japan","236","株式会社G-7・オート・サービス　オートバックス亀岡店","京都府亀岡市大井町南金岐２８番地
","771248531","","621-0016","0","","2019-10-10 03:28:06"
"ab-souja@g-7autoservice.co.jp","1","Japan","236","株式会社G-7・オート・サービス　オートバックス総社店","岡山県総社市井手字村後１０５７－１
","866929911","","719-1125","0","","2019-10-10 03:30:09"
"ab-miyoshi@g-7autoservice.co.jp","1","Japan","236","株式会社G-7・オート・サービス　オートバックス広島三次店","広島県三次市南畑敷町２２４－１
","824642377","","728-0017","0","","2019-10-10 03:30:54"
"ab-onomichi@g-7autoservice.co.jp","1","Japan","236","株式会社G-7・オート・サービス　オートバックス尾道店","広島県尾道市山波町３９９－１
","848560477","","722-0052","0","","2019-10-10 03:31:37"
"ab-fukuyamachuuou@g-7autoservice.co.jp","1","Japan","236","株式会社G-7・オート・サービス　オートバックス福山中央店","広島県福山市光南町３－８－８
","849222211","","720-0814","0","","2019-10-10 03:37:10"
"ab-zaou@g-7autoservice.co.jp","1","Japan","236","株式会社G-7・オート・サービス　オートバックス蔵王店","広島県福山市南蔵王町６丁目１番１号
","849434531","","721-0973","0","","2019-10-10 03:38:08"
"ab-fuchu@g-7autoservice.co.jp","1","Japan","236","株式会社G-7・オート・サービス　オートバックス広島府中店","広島県府中市中須町１０６
","847541577","","726-0012","0","","2019-10-10 03:38:48"
"ab-sakai@g-7autoservice.co.jp","1","Japan","236","株式会社G-7・オート・サービス　オートバックス坂井店","福井県坂井市坂井町上兵庫３３－２
","776723636","","919-0526","0","","2019-10-10 03:39:36"
"ab-fukuikita@g-7autoservice.co.jp","1","Japan","236","株式会社G-7・オート・サービス　オートバックス福井北店","福井県福井市高柳町２丁目２００１番地
","776523703","","910-0803","0","","2019-10-10 04:24:11"
"ab-yashiro@g-7autoservice.co.jp","1","Japan","236","株式会社G-7・オート・サービス　オートバックスやしろ店","福井県福井市渕１丁目４２０５番地
","776331980","","918-8026","0","","2019-10-10 04:25:05"
"ab-takefu@g-7autoservice.co.jp","1","Japan","236","株式会社G-7・オート・サービス　オートバックス武生店","福井県越前市稲寄町２７字６－１
","778237123","","915-0095","0","","2019-10-10 04:25:59"
"info@enfete.asia","1","Japan","0","AA JAPAN","126/2 Soi Ratchawithi2, Samsennai","803951444","","10240","0","15","2019-04-19 18:33:40"
"ab-sabae@g-7autoservice.co.jp","1","Japan","236","株式会社G-7・オート・サービス　オートバックスさばえ店","福井県鯖江市神中町２－９－２６
","778532777","","916-0016","0","","2019-10-10 04:27:02"
"ab-obama@g-7autoservice.co.jp","1","Japan","236","株式会社G-7・オート・サービス　オートバックス小浜店","福井県小浜市遠敷５４－８－５
","770560171","","917-0241","0","","2019-10-10 04:28:07"
"ab-tsuruga@g-7autoservice.co.jp","1","Japan","236","株式会社G-7・オート・サービス　オートバックス敦賀店","福井県敦賀市三島３３号１２－１
","770210107","","914-0058","0","","2019-10-10 04:29:00"
"nobuaki.oka@enfete.asia","1","Japan","0","Test","Test","Test","","111-1111","10","0","2019-04-30 17:29:39"
"ab-bandou@g-7autoservice.co.jp","1","Japan","236","株式会社G-7・オート・サービス　オートバックス坂東店","茨城県坂東市辺田１５２５番地８
","297367757","","306-0632","0","","2019-10-10 04:29:48"
"ab-nodaumesato@g-7autoservice.co.jp","1","Japan","236","株式会社G-7・オート・サービス　オートバックス野田梅郷店","千葉県野田市山崎１９０８－１
","471256591","","278-0022","0","","2019-10-10 04:30:34"
"test.sensha@gmail.com","1","Japan","0","Test","Test","Test","","111-1111","50","0","2019-05-02 18:07:46"
"ab-294moriya@g-7autoservice.co.jp","1","Japan","236","株式会社G-7・オート・サービス　オートバックス２９４守谷店","茨城県守谷市本町３２０２－１
","297455811","","302-0109","0","","2019-10-10 04:31:17"
"ab-chibanewtown@g-7autoservice.co.jp","1","Japan","236","株式会社G-7・オート・サービス　オートバックス千葉ニュータウン店","千葉県印西市西の原５－６
","476485557","","270-1334","0","","2019-10-10 04:32:02"
"ab-kamagaya@g-7autoservice.co.jp","1","Japan","236","株式会社G-7・オート・サービス　オートバックス鎌ヶ谷店","千葉県鎌ヶ谷市東道野辺２－２－３
","474461200","","273-0115","0","","2019-10-10 04:33:05"
"ab-yachiyo@g-7autoservice.co.jp","1","Japan","236","株式会社G-7・オート・サービス　オートバックス八千代店","千葉県八千代市大和田新田２０５－１７
","474827211","","276-0046","0","","2019-10-10 04:33:55"
"ab-narashino@g-7autoservice.co.jp","1","Japan","236","株式会社G-7・オート・サービス　オートバックス習志野台店","千葉県船橋市習志野台８丁目１番１７号
","474960770","","274-0063","0","","2019-10-10 04:34:36"
"ab-soga@g-7autoservice.co.jp","1","Japan","236","株式会社G-7・オート・サービス　オートバックスそが店","千葉県千葉市中央区川崎町１－３４
","432620711","","260-0835","0","","2019-10-10 04:35:42"
"ab-kisarazukaneda@g-7autoservice.co.jp","1","Japan","236","株式会社G-7・オート・サービス　オートバックス木更津金田店","千葉県木更津市金田東５丁目２１番地３
","438417775","","292-0009","0","","2019-10-10 04:36:30"
"ab-kisarazu@g-7autoservice.co.jp","1","Japan","236","株式会社G-7・オート・サービス　オートバックス木更津店","千葉県木更津市桜井字内田５番地
","438370043","","292-0822","0","","2019-10-10 04:37:20"
"ab-futtsu@g-7autoservice.co.jp","1","Japan","236","株式会社G-7・オート・サービス　オートバックス富津店","千葉県富津市青木１丁目１番地３
","439875770","","293-0012","0","","2019-10-10 04:38:04"
"ab-tateyama@g-7autoservice.co.jp","1","Japan","236","株式会社G-7・オート・サービス　オートバックス館山バイパス店","千葉県館山市正木字三貫目１４２８番
","470205770","","294-0051","0","","2019-10-10 04:51:20"
"bp-kobechuo@g-7autoservice.co.jp","1","Japan","236","株式会社G-7・オート・サービス　オートバックスBPセンター神戸中央店","兵庫県神戸市中央区小野浜町6-1
","783260107","","651-0082","0","","2019-10-10 04:53:59"
"bp-tsuchiyama@g-7autoservice.co.jp","1","Japan","236","株式会社G-7・オート・サービス　オートバックスBPセンター土山店","兵庫県加古川市平岡町土山776-6
","789447727","","675-0104","0","","2019-10-10 04:55:23"
"bp-kobekita@g-7autoservice.co.jp","1","Japan","236","株式会社G-7・オート・サービス　オートバックスBPセンター神戸北店","兵庫県神戸市北区赤松台1丁目2－12
","789833353","","651-1516","0","","2019-10-10 04:56:34"
"bp-fukui@g-7autoservice.co.jp","1","Japan","236","株式会社G-7・オート・サービス　オートバックスＢＰセンター福井店","福井県福井市和田1丁目5-8
","776257577","","918-8238","0","","2019-10-10 04:57:24"
"bp-nodaumesato@g-7autoservice.co.jp","1","Japan","236","株式会社G-7・オート・サービス　オートバックスＢＰセンター野田梅郷店","千葉県野田市山崎1604-6
","471216277","","278-0022","0","","2019-10-10 05:00:09"
"bp-fukuyama@g-7autoservice.co.jp","1","Japan","236","株式会社G-7・オート・サービス　オートバックスＢＰセンター福山店","広島県福山市引野町2丁目４５－７
","849400007","","721-0942","0","","2019-10-10 05:00:48"
"ab-maniwa@g-7autoservice.co.jp","1","Japan","236","株式会社G-7・オート・サービス　オートバックス真庭店","岡山県真庭市久世字黒尾３２４４－１
","867530177","","719-3201","0","","2019-10-10 07:39:01"
"suzuki-cars-s@g-7autoservice.co.jp ","1","Japan","236","株式会社G-7・オート・サービス　スズキカーズ大阪摂津","大阪府摂津市鳥飼上４丁目１番４６号
","726503381","","566-0062","0","","2019-10-10 07:53:09"
"bp-osaka@g-7autoservice.co.jp","1","Japan","236","株式会社G-7・オート・サービス　大阪BPセンター","大阪府摂津市鳥飼新町1丁目6番8号
","726541181","","566-0065","0","","2019-10-15 16:58:47"
"higashi-fukuoka@autobacsfukuoka.com","1","Japan","236","株式会社オートバックス福岡　スーパーオートバックス東福岡店","福岡県福岡市東区多の津3丁目3-18
","926217021","","813-0034","0","","2019-10-16 13:29:53"
"onojo@autobacsfukuoka.com","1","Japan","236","株式会社オートバックス福岡　スーパーオートバックス大野城御笠川店","福岡県大野城市御笠川5丁目2-1
","925038686","","816-0912","0","","2019-10-16 13:30:53"
"y-teshiro@ab-nankai.com","1","Japan","236","株式会社オートバックス南海　オートバックス徳島問屋町店","徳島県徳島市問屋町77-4
","886237005","","770-8056","0","","2019-10-16 13:32:02"
"k-kobayashi@ab-nankai.com","1","Japan","236","株式会社オートバックス南海　オートバックス徳島上板町店","徳島県板野郡上板町椎本字山伏塚602-1
","886946670","","771-1343","0","","2019-10-16 13:34:08"
"k-bando@ab-nankai.com","1","Japan","236","株式会社オートバックス南海　オートバックス阿南店","徳島県阿南市日開野町南居内343-1
","884249333","","774-0013","0","","2019-10-16 13:35:07"
"h-katayama@ab-nankai.com","1","Japan","236","株式会社オートバックス南海　オートバックス藍住店","徳島県板野郡藍住町住吉千鳥ヶ浜107-1
","886789491","","771-1265","0","","2019-10-16 13:36:37"
"shimomoto@ab-nankai.com","1","Japan","236","株式会社オートバックス南海　スーパーオートバックス高知御座店","高知県高知市南川添13-15
","888827812","","780-0082","0","","2019-10-16 13:38:26"
"nakatsuji@ab-nankai.com","1","Japan","236","株式会社オートバックス南海　オートバックス野市店","高知県香南市野市町西野1890
","887561103","","781-5232","0","","2019-10-16 13:40:13"
"morita@ab-nankai.com","1","Japan","236","株式会社オートバックス南海　オートバックス高知西店","高知県高知市鴨部3丁目24-10
","888438262","","780-8052","0","","2019-10-16 13:41:22"
"testaa@testaa","1","Japan","0","TEST","東京都1-2-3","","","1540021","","40","2019-10-18 17:23:47"
"kurokawa01@senshaworld.jp","1","Japan","0","","","080-1223-4567","","","20","","2019-11-01 11:47:07"
"kurokawa02@senshaworld.jp","1","Japan","0","株式会社黒川02","大阪府大阪市住吉区なんとか通り3-2-5○×ビル 5F","9098765432","","558-0000","20","","2019-11-01 11:51:45"
"aa-japan-01@enfete.asia","1","Japan","0","EN FETE CO., LTD.","126/2 Soi Ratchawithi2, Samsennai","22463134","","7614301","","30","2019-09-07 06:24:40"
"japan-fc02@enfete.asia","1","Japan","78","合同会社えにし","1346番地1小豆郡","879752457","","111-1111","10","","2019-09-07 09:00:50"
"ab-ichihara@g-7autoservice.co.jp","1","Japan","236","株式会社G-7・オート・サービス　オートバックス市原店","千葉県市原市更級4-2-1
","436245711","","290-0050","0","","2020-01-08 12:17:21"
"anzen-glass@triton.ocn.ne.jp","1","Japan","236","株式会社安全ガラス山口","山口県山口市朝田1066-2","839232122","","753-0871","0","","2020-01-08 12:20:33"
"r-moriguchi@yosidaauto.com","1","Japan","0","株式会社 ヨシダオートサービス","大阪府堺市北区長曾根町3083-10","722400806","","591-8025","","40","2020-01-08 14:49:18"
"y-umeno@yosidaauto.com","1","Japan","","株式会社 ヨシダオートサービス","大阪府堺市北区長曾根町3083-10","722400806","","591-8025","40","","2020-01-08 14:50:48"
"motoyama@ab-kagawa.co.jp","1","Japan","236","株式会社オートバックス香川　オートバックス仏生山店","香川県高松市仏生山甲1360
","878147017","","761-8078","0","","2020-01-08 15:09:26"
"mika-takahashi@cleanyourcar.jp","1","Japan","0","株式会社高橋","神奈川県","801234567","","1234567","20","","2019-09-10 02:43:34"
"nakamura@ab-kagawa.co.jp","1","Japan","236","株式会社オートバックス香川　オートバックス高松郷東店","香川県高松市郷東町字西新開451-1","878816633","","761-8031","0","","2020-01-08 15:11:33"
"hf040224@gmail.com","1","Japan","0","株式会社廣瀬","神奈川県","1234567890","","1234567","20","","2019-09-10 02:47:57"
"uemura@ab-kagawa.co.jp","1","Japan","236","株式会社オートバックス香川　オートバックス観音寺店","香川県観音寺市植田町1031-1
","0875-24-8321","","768-0012","0","","2020-01-08 15:13:09"
"dinosan715@gmail.com","1","Japan","0","株式会社Dino","神奈川県","1234567890","","1234567","20","","2019-09-10 02:51:23"
"h-nakayama@ab-kagawa.co.jp","1","Japan","236","株式会社オートバックス香川　オートバックスまるがめ店","香川県丸亀市田村町695","877248321","","763-0071","0","","2020-01-08 15:18:48"
"winter1983swl@yahoo.co.jp","1","Japan","0","株式会社孫","神奈川県","1234567890","","1234567","20","","2019-09-10 02:53:51"
"kishiue@ab-kagawa.co.jp","1","Japan","236","株式会社オートバックス香川　オートバックス丸亀土器川店","香川県丸亀市土器町東8-11","0877-24-2272","","763-0082","0","","2020-01-08 15:20:08"
"yodo@ab-kagawa.co.jp","1","Japan","236","株式会社オートバックス香川　スーパーオートバックス高松中央","香川県高松市東山崎町662-1","878407211","","761-0312","0","","2020-01-08 15:21:37"
"exgarage01@gmail.com","1","Japan","236","エクスガレージ","兵庫県尼崎市道意町6丁目31番9号","675092427","","660-0083","0","","2020-01-08 15:23:03"
"eastfield_autoparts@yahoo.co.jp","1","Japan","217","East Field","大阪府羽曳野市西浦6丁目450-25
","729564137","","583-0861","20","","2020-01-08 15:26:33"
"nx-coat@nextage.jp","1","Japan","0","株式会社ASAP","愛知県名古屋市千種区竹越2-6-35
","527154907","","464-0007","20","","2019-09-12 01:18:40"
"hlp.taniwaki@icloud.com","1","Japan","217","株式会社 HLP","大阪府大阪狭山市東野西3-805-5
","8042448696","","589-0001","20","","2020-01-08 15:28:28"
"kishigami@unite-carlife.com","1","Japan","0","ユナイト株式会社","神奈川県横浜市鶴見区尻手2丁目6番1号
","662637431","","230-0003","20","","2019-09-12 01:19:35"
"tz18tayj@cream.plala.or.jp","1","Japan","217","AUTO FINAL","静岡県浜松市東区和田町749-3","535818708","","435-0016","20","","2020-01-08 15:30:06"
"k-shiridashi@docomo.ne.jp","1","Japan","0","有限会社 アートグロウ","北海道札幌市東区東雁来9条4丁目3番26号
","116768622","","007-0829","20","","2020-01-08 15:33:29"
"info@loperaio.co.jp","1","Japan","0","株式会社ロペライオ","埼玉県戸田市笹目7-5-7
","354318855","","335-0034","20","","2019-09-12 01:21:37"
"fixman@premium-group.co.jp","1","Japan","355","PAS株式会社 FIXMAN","北海道札幌市東区東雁来6条2丁目1-10","113765231","","007-0826","0","","2019-09-12 01:27:01"
"kentaro.shiba@premium-group.co.jp","1","Japan","0","プレミアグループ株式会社","東京都港区六本木1－9－9　六本木ファーストビル17階","03-5114-5729","","106-0032","","40","2020-01-08 16:05:14"
"takke@carwash.tokyo","1","Japan","0","株式会社 洗車興業","東京都練馬区小竹町1-55-1-202
","359293086","","176-0004","","0","2020-01-14 15:47:37"
"contact@tokyobay-motors.jp","1","Japan","0","東京ベイモータース","東京都港区台場１－３－３－１０２","362608343","","135-0091","20","","2019-09-12 01:37:55"
"takke471125@gmail.com","1","Japan","356","株式会社 洗車興業","東京都練馬区小竹町1-55-1-202
","359293086","","176-0004","40","","2020-01-14 15:50:32"
"yama511221@yahoo.co.jp","1","Japan","0","株式会社ファースト","神奈川県厚木市下依知 1063","‭0462459909‬","","243-0806","20","","2019-09-12 01:38:45"
"pitinplaza@sktoukai.com","1","Japan","0","SK東海株式会社","愛知県海部郡蟹江町錦2丁目167
","567696215","","497-0054","20","","2019-09-12 01:39:41"
"p.factory.inoue@gmail.com","1","Japan","0","P-Factory 有限会社いのうえ","神奈川県愛甲郡愛川町半原3871-2
","462115121","","243-0307","20","","2019-09-12 01:40:21"
"tsuruta@sakura-inc.jp","1","Japan","0","株式会社 さくら","大阪府大阪市住之江区南港南2丁目4番104号
","666135600","","559-0032","20","","2019-09-12 01:41:08"
"takemura@start-trust.jp","1","Japan","0","スタートラスト株式会社","愛知県名古屋市中川区吉津１－１５０２
","524858803","","454-0981","20","","2019-09-12 01:42:09"
"marushin@car","1","Japan","0","株式会社マルシンコマース","神奈川県横浜市港北区樽町３-６-４７
","455417551","","222-0001","20","","2019-09-12 01:45:28"
"info@japaneseautoworld.com","1","Japan","0","Japanese Auto World","東京都練馬区光が丘2-7-3-1009","05012091431 ","","179-0072","30","","2020-01-27 10:17:33"
"support@cmiz.net","1","Japan","217","株式会社ASホールディングス","兵庫県西宮市山口町船坂117","078-904-7700","","651-1423","20","","2020-01-27 10:27:57"
"kurokawa@senshaworld.jp","1","Japan","322","株式会社黒川","神奈川県","123123123","","2350045","40","","2019-09-12 05:57:40"
"kenji.jpn70@gmail.com","1","Japan","0","HATA","大阪府堺市東区日置荘北町1-33-20
","9016739030","","599-8111","","20","2019-10-04 00:46:34"
"hiramatsu-car@maroon.plala.or.jp","1","Japan","217","有限会社 ヒラマツ自動車　","大阪府大阪狭山市西山台1-1-1
","723686334","","589-0022","20","","2019-10-04 00:53:33"
"info@jfa.co.jp","1","Japan","0","Japan Forwarding Agency　","千葉県木更津市潮浜1-17-69","438307488","","292-0838","40","","2019-10-04 01:41:07"
"kglobalkim@gmail.com","1","Japan","0","KIM SUNMIN","福岡市中央区港1-9-22-2F","927919301","","810-0075","40","","2019-10-04 01:42:50"
"toru.kon@atelier-code.com","1","Japan","0","atelier code","神奈川県川崎市宮前区菅生3-34-9 105
","5030779667","","216-0015","20","","2019-10-04 01:43:58"
"car-care@car-prosper.jp","1","Japan","0","カーケア・プラスパ","岩手県奥州市水沢区多賀60-3
","197224500","","023-0032","20","","2019-10-04 04:14:02"
"hondacars@karitourokuyou","1","Japan","0","ホンダカーズ神奈川南平塚店　","神奈川県平塚市四之宮5-29-7","0463-55-1167","","254-0014","20","","2019-10-08 03:06:53"
"detailosaka@g-7autoservice.co.jp","1","Japan","0","株式会社G-7・オート・サービス 大阪カンパニー","大阪府摂津市鳥飼新町1-6-8
","726541181","","566-0065","","40","2019-10-10 00:38:30"
"ab-akou@g-7autoservice.co.jp","1","Japan","236","株式会社G-7・オート・サービス　オートバックス赤穂店","兵庫県赤穂市三樋町３","791452600","","678-0245","0","","2019-10-10 00:40:22"
"ab-tatsuno@g-7autoservice.co.jp","1","Japan","236","株式会社G-7・オート・サービス　オートバックス竜野店","兵庫県たつの市龍野町堂本字天神４４１－１","791629803","","679-4129","0","","2019-10-10 00:44:13"
"ab-aboshi@g-7autoservice.co.jp","1","Japan","236","株式会社G-7・オート・サービス　オートバックス網干店","兵庫県姫路市網干区和久字下丁田８－１","792743009","","671-1227","0","","2019-10-10 00:45:10"
"ab-himejinishi@g-7autoservice.co.jp","1","Japan","236","株式会社G-7・オート・サービス　オートバックス姫路西店","兵庫県姫路市下手野１丁目４－２５","792960107","","670-0063","0","","2019-10-10 00:46:34"
"ab-rivercity@g-7autoservice.co.jp","1","Japan","236","株式会社G-7・オート・サービス　オートバックス姫路リバーシティ店","兵庫県姫路市飾磨区細江２６１４番地","792336160","","672-8064","0","","2019-10-10 00:47:38"
"ab-yamasaki@g-7autoservice.co.jp","1","Japan","236","株式会社G-7・オート・サービス　オートバックス山崎店","兵庫県宍粟市山崎町船元２３２－６
","790640107","","671-2542","0","","2019-10-10 01:28:40"
"sa-himeji@g-7autoservice.co.jp","1","Japan","236","株式会社G-7・オート・サービス　スーパーオートバックス姫路店","兵庫県姫路市花田町一本松６３－１
","792510117","","671-0253","0","","2019-10-10 01:29:52"
"ab-fukusaki@g-7autoservice.co.jp","1","Japan","236","株式会社G-7・オート・サービス　オートバックスふくさき店","兵庫県神崎郡福崎町南田原２９５９
","790231677","","679-2203","0","","2019-10-10 01:30:49"
"ab-takasago@g-7autoservice.co.jp","1","Japan","236","株式会社G-7・オート・サービス　オートバックス高砂店","兵庫県高砂市神爪３丁目１番１号
","794341881","","676-0808","0","","2019-10-10 01:31:45"
"ab-kakogawa@g-7autoservice.co.jp","1","Japan","236","株式会社G-7・オート・サービス　オートバックス加古川店 ","兵庫県加古川市加古川町平野２５０
","794263312","","675-0063","0","","2019-10-10 01:32:57"
"ab-befu@g-7autoservice.co.jp","1","Japan","236","株式会社G-7・オート・サービス　オートバックスべふ店 ","兵庫県加古川市別府町緑町３
","794358551","","675-0124","0","","2019-10-10 01:35:03"
"ab-tsuchiyama@g-7autoservice.co.jp","1","Japan","236","株式会社G-7・オート・サービス　オートバックスＮＥＷ土山店","兵庫県加古川市平岡町土山７７６－６
","789490107","","675-0104","0","","2019-10-10 02:15:40"
"ab-nishiwaki@g-7autoservice.co.jp","1","Japan","236","株式会社G-7・オート・サービス　オートバックス西脇店","兵庫県西脇市高田井町３１３
","795235565","","677-0016","0","","2019-10-10 02:22:38"
"ab-mikioomura@g-7autoservice.co.jp","1","Japan","236","株式会社G-7・オート・サービス　オートバックス三木大村店","兵庫県三木市大村５７６
","794860220","","673-0404","0","","2019-10-10 02:33:40"
"ab-miki@g-7autoservice.co.jp","1","Japan","236","株式会社G-7・オート・サービス　オートバックス三木店","兵庫県三木市志染町広野１－９８","794853021","","673-0541","0","","2019-10-10 02:36:56"
"ab-kobesanda@g-7autoservice.co.jp","1","Japan","236","株式会社G-7・オート・サービス　オートバックス神戸三田インター店","兵庫県神戸市北区赤松台１丁目２－１２
","789842611","","651-1516","0","","2019-10-10 02:37:47"
"ab-sanda@g-7autoservice.co.jp","1","Japan","236","株式会社G-7・オート・サービス　オートバックス三田店","兵庫県三田市天神２丁目４－３０
","795627762","","669-1531","0","","2019-10-10 02:40:27"
"ab-sasayama@g-7autoservice.co.jp","1","Japan","236","株式会社G-7・オート・サービス　オートバックス篠山店","兵庫県丹波篠山市味間新１０６－１
","795901700","","669-2214","0","","2019-10-10 02:42:06"
"ab-hikami@g-7autoservice.co.jp","1","Japan","236","株式会社G-7・オート・サービス　オートバックス氷上店","兵庫県丹波市氷上町稲継字稲グキ７４－１
","795823220","","669-3466","0","","2019-10-10 02:44:51"
