<?xml version="1.0" encoding="utf-8"?>
<!-- Generator: Adobe Illustrator 16.0.0, SVG Export Plug-In . SVG Version: 6.00 Build 0)  -->
<!DOCTYPE svg PUBLIC "-//W3C//DTD SVG 1.1//EN" "http://www.w3.org/Graphics/SVG/1.1/DTD/svg11.dtd">
<svg version="1.1" id="Layer_1" xmlns="http://www.w3.org/2000/svg" xmlns:xlink="http://www.w3.org/1999/xlink" x="0px" y="0px"
	 width="520.831px" height="357.139px" viewBox="0 0 520.831 357.139" enable-background="new 0 0 520.831 357.139"
	 xml:space="preserve">
<defs>
	<filter id="Adobe_OpacityMaskFilter" filterUnits="userSpaceOnUse" x="29.576" y="-7.584" width="345.679" height="345.679">
		<feColorMatrix  type="matrix" values="1 0 0 0 0  0 1 0 0 0  0 0 1 0 0  0 0 0 1 0"/>
	</filter>
</defs>
<mask maskUnits="userSpaceOnUse" x="29.576" y="-7.584" width="345.679" height="345.679" id="SVGID_1_">
	<g filter="url(#Adobe_OpacityMaskFilter)">
		<radialGradient id="SVGID_2_" cx="202.4155" cy="165.2559" r="160.1816" gradientUnits="userSpaceOnUse">
			<stop  offset="0" style="stop-color:#FFFFFF"/>
			<stop  offset="1" style="stop-color:#231F20"/>
		</radialGradient>
		<rect x="42.234" y="5.074" fill="url(#SVGID_2_)" width="320.363" height="320.364"/>
	</g>
</mask>
<g mask="url(#SVGID_1_)">
	<g>
		
			<line fill="none" stroke="#BBBDBF" stroke-width="0.2835" stroke-miterlimit="10" x1="29.576" y1="-0.001" x2="375.254" y2="-0.001"/>
		
			<line fill="none" stroke="#BBBDBF" stroke-width="0.2835" stroke-miterlimit="10" x1="29.576" y1="7.031" x2="375.254" y2="7.031"/>
		
			<line fill="none" stroke="#BBBDBF" stroke-width="0.2835" stroke-miterlimit="10" x1="29.576" y1="14.063" x2="375.254" y2="14.063"/>
		
			<line fill="none" stroke="#BBBDBF" stroke-width="0.2835" stroke-miterlimit="10" x1="29.576" y1="21.096" x2="375.254" y2="21.096"/>
		
			<line fill="none" stroke="#BBBDBF" stroke-width="0.2835" stroke-miterlimit="10" x1="29.576" y1="28.127" x2="375.254" y2="28.127"/>
		
			<line fill="none" stroke="#BBBDBF" stroke-width="0.2835" stroke-miterlimit="10" x1="29.576" y1="35.16" x2="375.254" y2="35.16"/>
		
			<line fill="none" stroke="#BBBDBF" stroke-width="0.2835" stroke-miterlimit="10" x1="29.576" y1="42.192" x2="375.254" y2="42.192"/>
		
			<line fill="none" stroke="#BBBDBF" stroke-width="0.2835" stroke-miterlimit="10" x1="29.576" y1="49.224" x2="375.254" y2="49.224"/>
		
			<line fill="none" stroke="#BBBDBF" stroke-width="0.2835" stroke-miterlimit="10" x1="29.576" y1="56.256" x2="375.254" y2="56.256"/>
		
			<line fill="none" stroke="#BBBDBF" stroke-width="0.2835" stroke-miterlimit="10" x1="29.576" y1="63.288" x2="375.254" y2="63.288"/>
		
			<line fill="none" stroke="#BBBDBF" stroke-width="0.2835" stroke-miterlimit="10" x1="29.577" y1="70.32" x2="375.254" y2="70.32"/>
		
			<line fill="none" stroke="#BBBDBF" stroke-width="0.2835" stroke-miterlimit="10" x1="29.576" y1="77.353" x2="375.254" y2="77.353"/>
		
			<line fill="none" stroke="#BBBDBF" stroke-width="0.2835" stroke-miterlimit="10" x1="29.576" y1="84.385" x2="375.254" y2="84.385"/>
		
			<line fill="none" stroke="#BBBDBF" stroke-width="0.2835" stroke-miterlimit="10" x1="29.576" y1="91.417" x2="375.254" y2="91.417"/>
		
			<line fill="none" stroke="#BBBDBF" stroke-width="0.2835" stroke-miterlimit="10" x1="29.577" y1="98.449" x2="375.254" y2="98.449"/>
		
			<line fill="none" stroke="#BBBDBF" stroke-width="0.2835" stroke-miterlimit="10" x1="29.576" y1="105.481" x2="375.254" y2="105.481"/>
		
			<line fill="none" stroke="#BBBDBF" stroke-width="0.2835" stroke-miterlimit="10" x1="29.576" y1="112.513" x2="375.254" y2="112.513"/>
		
			<line fill="none" stroke="#BBBDBF" stroke-width="0.2835" stroke-miterlimit="10" x1="29.576" y1="119.545" x2="375.254" y2="119.545"/>
		
			<line fill="none" stroke="#BBBDBF" stroke-width="0.2835" stroke-miterlimit="10" x1="29.577" y1="126.577" x2="375.254" y2="126.577"/>
		
			<line fill="none" stroke="#BBBDBF" stroke-width="0.2835" stroke-miterlimit="10" x1="29.576" y1="133.609" x2="375.254" y2="133.609"/>
		
			<line fill="none" stroke="#BBBDBF" stroke-width="0.2835" stroke-miterlimit="10" x1="29.576" y1="140.642" x2="375.254" y2="140.642"/>
		
			<line fill="none" stroke="#BBBDBF" stroke-width="0.2835" stroke-miterlimit="10" x1="29.576" y1="147.674" x2="375.254" y2="147.674"/>
		
			<line fill="none" stroke="#BBBDBF" stroke-width="0.2835" stroke-miterlimit="10" x1="29.577" y1="154.706" x2="375.254" y2="154.706"/>
		
			<line fill="none" stroke="#BBBDBF" stroke-width="0.2835" stroke-miterlimit="10" x1="29.576" y1="161.738" x2="375.254" y2="161.738"/>
		
			<line fill="none" stroke="#BBBDBF" stroke-width="0.2835" stroke-miterlimit="10" x1="29.576" y1="168.771" x2="375.254" y2="168.771"/>
		
			<line fill="none" stroke="#BBBDBF" stroke-width="0.2835" stroke-miterlimit="10" x1="29.577" y1="175.806" x2="375.254" y2="175.806"/>
		
			<line fill="none" stroke="#BBBDBF" stroke-width="0.2835" stroke-miterlimit="10" x1="29.576" y1="182.837" x2="375.254" y2="182.837"/>
		
			<line fill="none" stroke="#BBBDBF" stroke-width="0.2835" stroke-miterlimit="10" x1="29.576" y1="189.869" x2="375.254" y2="189.869"/>
		
			<line fill="none" stroke="#BBBDBF" stroke-width="0.2835" stroke-miterlimit="10" x1="29.576" y1="196.901" x2="375.254" y2="196.901"/>
		
			<line fill="none" stroke="#BBBDBF" stroke-width="0.2835" stroke-miterlimit="10" x1="29.577" y1="203.934" x2="375.254" y2="203.934"/>
		
			<line fill="none" stroke="#BBBDBF" stroke-width="0.2835" stroke-miterlimit="10" x1="29.576" y1="210.966" x2="375.254" y2="210.966"/>
		
			<line fill="none" stroke="#BBBDBF" stroke-width="0.2835" stroke-miterlimit="10" x1="29.576" y1="217.998" x2="375.254" y2="217.998"/>
		
			<line fill="none" stroke="#BBBDBF" stroke-width="0.2835" stroke-miterlimit="10" x1="29.576" y1="225.03" x2="375.254" y2="225.03"/>
		
			<line fill="none" stroke="#BBBDBF" stroke-width="0.2835" stroke-miterlimit="10" x1="29.577" y1="232.062" x2="375.254" y2="232.062"/>
		
			<line fill="none" stroke="#BBBDBF" stroke-width="0.2835" stroke-miterlimit="10" x1="29.576" y1="239.094" x2="375.254" y2="239.094"/>
		
			<line fill="none" stroke="#BBBDBF" stroke-width="0.2835" stroke-miterlimit="10" x1="29.576" y1="246.126" x2="375.254" y2="246.126"/>
		
			<line fill="none" stroke="#BBBDBF" stroke-width="0.2835" stroke-miterlimit="10" x1="29.576" y1="253.158" x2="375.254" y2="253.158"/>
		
			<line fill="none" stroke="#BBBDBF" stroke-width="0.2835" stroke-miterlimit="10" x1="29.577" y1="260.19" x2="375.254" y2="260.19"/>
		
			<line fill="none" stroke="#BBBDBF" stroke-width="0.2835" stroke-miterlimit="10" x1="29.576" y1="267.223" x2="375.254" y2="267.223"/>
		
			<line fill="none" stroke="#BBBDBF" stroke-width="0.2835" stroke-miterlimit="10" x1="29.576" y1="274.255" x2="375.254" y2="274.255"/>
		
			<line fill="none" stroke="#BBBDBF" stroke-width="0.2835" stroke-miterlimit="10" x1="29.576" y1="281.287" x2="375.254" y2="281.287"/>
		
			<line fill="none" stroke="#BBBDBF" stroke-width="0.2835" stroke-miterlimit="10" x1="29.577" y1="288.319" x2="375.254" y2="288.319"/>
		
			<line fill="none" stroke="#BBBDBF" stroke-width="0.2835" stroke-miterlimit="10" x1="29.576" y1="295.352" x2="375.254" y2="295.352"/>
		
			<line fill="none" stroke="#BBBDBF" stroke-width="0.2835" stroke-miterlimit="10" x1="29.576" y1="302.384" x2="375.254" y2="302.384"/>
		
			<line fill="none" stroke="#BBBDBF" stroke-width="0.2835" stroke-miterlimit="10" x1="29.576" y1="309.415" x2="375.254" y2="309.415"/>
		
			<line fill="none" stroke="#BBBDBF" stroke-width="0.2835" stroke-miterlimit="10" x1="29.577" y1="316.447" x2="375.254" y2="316.447"/>
		
			<line fill="none" stroke="#BBBDBF" stroke-width="0.2835" stroke-miterlimit="10" x1="29.576" y1="323.479" x2="375.254" y2="323.479"/>
		
			<line fill="none" stroke="#BBBDBF" stroke-width="0.2835" stroke-miterlimit="10" x1="29.576" y1="330.512" x2="375.254" y2="330.512"/>
	</g>
	<g>
		
			<line fill="none" stroke="#BBBDBF" stroke-width="0.2835" stroke-miterlimit="10" x1="367.67" y1="-7.584" x2="367.67" y2="338.095"/>
		
			<line fill="none" stroke="#BBBDBF" stroke-width="0.2835" stroke-miterlimit="10" x1="360.638" y1="-7.584" x2="360.638" y2="338.095"/>
		
			<line fill="none" stroke="#BBBDBF" stroke-width="0.2835" stroke-miterlimit="10" x1="353.606" y1="-7.584" x2="353.606" y2="338.095"/>
		
			<line fill="none" stroke="#BBBDBF" stroke-width="0.2835" stroke-miterlimit="10" x1="346.574" y1="-7.584" x2="346.574" y2="338.095"/>
		
			<line fill="none" stroke="#BBBDBF" stroke-width="0.2835" stroke-miterlimit="10" x1="339.542" y1="-7.584" x2="339.542" y2="338.095"/>
		
			<line fill="none" stroke="#BBBDBF" stroke-width="0.2835" stroke-miterlimit="10" x1="332.51" y1="-7.584" x2="332.51" y2="338.095"/>
		
			<line fill="none" stroke="#BBBDBF" stroke-width="0.2835" stroke-miterlimit="10" x1="325.478" y1="-7.584" x2="325.478" y2="338.095"/>
		
			<line fill="none" stroke="#BBBDBF" stroke-width="0.2835" stroke-miterlimit="10" x1="318.445" y1="-7.584" x2="318.445" y2="338.095"/>
		
			<line fill="none" stroke="#BBBDBF" stroke-width="0.2835" stroke-miterlimit="10" x1="311.413" y1="-7.584" x2="311.413" y2="338.095"/>
		
			<line fill="none" stroke="#BBBDBF" stroke-width="0.2835" stroke-miterlimit="10" x1="304.381" y1="-7.584" x2="304.381" y2="338.095"/>
		
			<line fill="none" stroke="#BBBDBF" stroke-width="0.2835" stroke-miterlimit="10" x1="297.349" y1="-7.584" x2="297.349" y2="338.095"/>
		
			<line fill="none" stroke="#BBBDBF" stroke-width="0.2835" stroke-miterlimit="10" x1="290.317" y1="-7.584" x2="290.317" y2="338.095"/>
		
			<line fill="none" stroke="#BBBDBF" stroke-width="0.2835" stroke-miterlimit="10" x1="283.285" y1="-7.584" x2="283.285" y2="338.095"/>
		
			<line fill="none" stroke="#BBBDBF" stroke-width="0.2835" stroke-miterlimit="10" x1="276.252" y1="-7.584" x2="276.252" y2="338.095"/>
		
			<line fill="none" stroke="#BBBDBF" stroke-width="0.2835" stroke-miterlimit="10" x1="269.22" y1="-7.584" x2="269.22" y2="338.095"/>
		
			<line fill="none" stroke="#BBBDBF" stroke-width="0.2835" stroke-miterlimit="10" x1="262.188" y1="-7.584" x2="262.188" y2="338.095"/>
		
			<line fill="none" stroke="#BBBDBF" stroke-width="0.2835" stroke-miterlimit="10" x1="255.156" y1="-7.584" x2="255.156" y2="338.095"/>
		
			<line fill="none" stroke="#BBBDBF" stroke-width="0.2835" stroke-miterlimit="10" x1="248.124" y1="-7.584" x2="248.124" y2="338.095"/>
		
			<line fill="none" stroke="#BBBDBF" stroke-width="0.2835" stroke-miterlimit="10" x1="241.092" y1="-7.584" x2="241.092" y2="338.095"/>
		
			<line fill="none" stroke="#BBBDBF" stroke-width="0.2835" stroke-miterlimit="10" x1="234.06" y1="-7.584" x2="234.06" y2="338.095"/>
		
			<line fill="none" stroke="#BBBDBF" stroke-width="0.2835" stroke-miterlimit="10" x1="227.028" y1="-7.584" x2="227.028" y2="338.095"/>
		
			<line fill="none" stroke="#BBBDBF" stroke-width="0.2835" stroke-miterlimit="10" x1="219.996" y1="-7.584" x2="219.996" y2="338.095"/>
		
			<line fill="none" stroke="#BBBDBF" stroke-width="0.2835" stroke-miterlimit="10" x1="212.963" y1="-7.584" x2="212.963" y2="338.095"/>
		
			<line fill="none" stroke="#BBBDBF" stroke-width="0.2835" stroke-miterlimit="10" x1="205.931" y1="-7.584" x2="205.931" y2="338.095"/>
		
			<line fill="none" stroke="#BBBDBF" stroke-width="0.2835" stroke-miterlimit="10" x1="198.899" y1="-7.584" x2="198.899" y2="338.095"/>
		
			<line fill="none" stroke="#BBBDBF" stroke-width="0.2835" stroke-miterlimit="10" x1="191.867" y1="-7.584" x2="191.867" y2="338.095"/>
		
			<line fill="none" stroke="#BBBDBF" stroke-width="0.2835" stroke-miterlimit="10" x1="184.834" y1="-7.584" x2="184.834" y2="338.095"/>
		
			<line fill="none" stroke="#BBBDBF" stroke-width="0.2835" stroke-miterlimit="10" x1="177.802" y1="-7.584" x2="177.802" y2="338.095"/>
		
			<line fill="none" stroke="#BBBDBF" stroke-width="0.2835" stroke-miterlimit="10" x1="170.77" y1="-7.584" x2="170.77" y2="338.095"/>
		
			<line fill="none" stroke="#BBBDBF" stroke-width="0.2835" stroke-miterlimit="10" x1="163.738" y1="-7.584" x2="163.738" y2="338.095"/>
		
			<line fill="none" stroke="#BBBDBF" stroke-width="0.2835" stroke-miterlimit="10" x1="156.706" y1="-7.584" x2="156.706" y2="338.095"/>
		
			<line fill="none" stroke="#BBBDBF" stroke-width="0.2835" stroke-miterlimit="10" x1="149.673" y1="-7.584" x2="149.673" y2="338.095"/>
		
			<line fill="none" stroke="#BBBDBF" stroke-width="0.2835" stroke-miterlimit="10" x1="142.641" y1="-7.584" x2="142.641" y2="338.095"/>
		
			<line fill="none" stroke="#BBBDBF" stroke-width="0.2835" stroke-miterlimit="10" x1="135.61" y1="-7.584" x2="135.61" y2="338.095"/>
		
			<line fill="none" stroke="#BBBDBF" stroke-width="0.2835" stroke-miterlimit="10" x1="128.578" y1="-7.584" x2="128.578" y2="338.095"/>
		
			<line fill="none" stroke="#BBBDBF" stroke-width="0.2835" stroke-miterlimit="10" x1="121.545" y1="-7.584" x2="121.545" y2="338.095"/>
		
			<line fill="none" stroke="#BBBDBF" stroke-width="0.2835" stroke-miterlimit="10" x1="114.513" y1="-7.584" x2="114.513" y2="338.095"/>
		
			<line fill="none" stroke="#BBBDBF" stroke-width="0.2835" stroke-miterlimit="10" x1="107.48" y1="-7.584" x2="107.48" y2="338.095"/>
		
			<line fill="none" stroke="#BBBDBF" stroke-width="0.2835" stroke-miterlimit="10" x1="100.448" y1="-7.584" x2="100.448" y2="338.095"/>
		
			<line fill="none" stroke="#BBBDBF" stroke-width="0.2835" stroke-miterlimit="10" x1="93.417" y1="-7.584" x2="93.417" y2="338.095"/>
		
			<line fill="none" stroke="#BBBDBF" stroke-width="0.2835" stroke-miterlimit="10" x1="86.384" y1="-7.584" x2="86.384" y2="338.095"/>
		
			<line fill="none" stroke="#BBBDBF" stroke-width="0.2835" stroke-miterlimit="10" x1="79.352" y1="-7.584" x2="79.352" y2="338.095"/>
		
			<line fill="none" stroke="#BBBDBF" stroke-width="0.2835" stroke-miterlimit="10" x1="72.32" y1="-7.584" x2="72.32" y2="338.095"/>
		
			<line fill="none" stroke="#BBBDBF" stroke-width="0.2835" stroke-miterlimit="10" x1="65.288" y1="-7.584" x2="65.288" y2="338.095"/>
		
			<line fill="none" stroke="#BBBDBF" stroke-width="0.2835" stroke-miterlimit="10" x1="58.255" y1="-7.584" x2="58.255" y2="338.095"/>
		
			<line fill="none" stroke="#BBBDBF" stroke-width="0.2835" stroke-miterlimit="10" x1="51.224" y1="-7.584" x2="51.224" y2="338.095"/>
		
			<line fill="none" stroke="#BBBDBF" stroke-width="0.2835" stroke-miterlimit="10" x1="44.191" y1="-7.584" x2="44.191" y2="338.095"/>
		
			<line fill="none" stroke="#BBBDBF" stroke-width="0.2835" stroke-miterlimit="10" x1="37.159" y1="-7.584" x2="37.159" y2="338.095"/>
	</g>
</g>
<g opacity="0.75">
	<path fill="#FFFFFF" d="M113.309,109.529l98.893,22.575c0,0,171.088,34.217,214.184,109.829l-88.063,97.14
		c-61.637-92.332-185.411-118.889-185.411-118.889L0,175.629L113.309,109.529z"/>
	<linearGradient id="SVGID_3_" gradientUnits="userSpaceOnUse" x1="99.4082" y1="95.8711" x2="399.4883" y2="386.2711">
		<stop  offset="0.5605" style="stop-color:#9DC9D5"/>
		<stop  offset="0.8399" style="stop-color:#FFFFFF"/>
	</linearGradient>
	<path fill="url(#SVGID_3_)" d="M113.309,109.529l98.893,22.575c0,0,171.088,34.217,214.184,109.829l-88.063,97.14
		c-61.637-92.332-185.411-118.889-185.411-118.889L0,175.629L113.309,109.529z"/>
	<linearGradient id="SVGID_4_" gradientUnits="userSpaceOnUse" x1="0" y1="261.7998" x2="338.3218" y2="261.7998">
		<stop  offset="0" style="stop-color:#A2D8E5"/>
		<stop  offset="1" style="stop-color:#A3CDDF"/>
	</linearGradient>
	<path fill="url(#SVGID_4_)" d="M338.322,339.073c-61.637-92.332-185.411-118.889-185.411-118.889L0,175.629v11.434l143.828,41.909
		c0,0,129.228,32.829,183.008,118.998L338.322,339.073z"/>
</g>
<polygon opacity="0.5" fill="#AAD3F0" points="520.831,202.816 113.309,109.216 0,175.629 439.277,303.627 "/>
<g opacity="0.6">
	<polygon fill="#ACD9F4" points="439.277,278.476 0,159.623 113.309,95.61 520.831,181.468 	"/>
	<linearGradient id="SVGID_5_" gradientUnits="userSpaceOnUse" x1="439.6304" y1="242.5479" x2="529.3027" y2="242.5479">
		<stop  offset="0" style="stop-color:#E9F5F6"/>
		<stop  offset="0.6606" style="stop-color:#CFEBF2"/>
	</linearGradient>
	<polygon opacity="0.9" fill="url(#SVGID_5_)" points="520.831,181.468 520.831,202.816 439.277,303.627 439.277,278.476 	"/>
</g>
<g>
	<linearGradient id="SVGID_6_" gradientUnits="userSpaceOnUse" x1="0" y1="204.5068" x2="392.6294" y2="204.5068">
		<stop  offset="0" style="stop-color:#28AADC"/>
		<stop  offset="0.9567" style="stop-color:#3863A8"/>
	</linearGradient>
	<polygon fill="url(#SVGID_6_)" points="392.629,265.854 0,159.623 0,143.159 392.629,242.987 	"/>
	<polygon fill="#33AAE1" points="0,143.159 392.629,242.987 478.823,152.856 109.883,83.037 	"/>
</g>
<g>
	<polygon fill="#FFC453" points="353.084,232.762 0,143.159 0,126.695 353.084,209.896 	"/>
	<polygon opacity="0.7" fill="#F1CF63" points="0,126.695 353.084,209.896 439.277,125.611 109.303,69.68 	"/>
	<defs>
		<filter id="Adobe_OpacityMaskFilter_1_" filterUnits="userSpaceOnUse" x="0" y="69.68" width="439.277" height="140.217">
			<feFlood  style="flood-color:white;flood-opacity:1" result="back"/>
			<feBlend  in="SourceGraphic" in2="back" mode="normal"/>
		</filter>
	</defs>
	<mask maskUnits="userSpaceOnUse" x="0" y="69.68" width="439.277" height="140.217" id="SVGID_7_">
		<g filter="url(#Adobe_OpacityMaskFilter_1_)">
			<defs>
				<filter id="Adobe_OpacityMaskFilter_2_" filterUnits="userSpaceOnUse" x="0" y="69.68" width="439.277" height="140.217">
					<feFlood  style="flood-color:white;flood-opacity:1" result="back"/>
					<feBlend  in="SourceGraphic" in2="back" mode="normal"/>
				</filter>
			</defs>
			<mask maskUnits="userSpaceOnUse" x="0" y="69.68" width="439.277" height="140.217" id="SVGID_7_">
				<g filter="url(#Adobe_OpacityMaskFilter_2_)">
				</g>
			</mask>
			<linearGradient id="SVGID_8_" gradientUnits="userSpaceOnUse" x1="125.2144" y1="32.2012" x2="340.3245" y2="246.2358">
				<stop  offset="0.5605" style="stop-color:#FFFFFF"/>
				<stop  offset="0.853" style="stop-color:#000000"/>
			</linearGradient>
			<polygon mask="url(#SVGID_7_)" fill="url(#SVGID_8_)" points="0,126.695 353.084,209.896 439.277,125.611 109.303,69.68 			"/>
		</g>
	</mask>
	<linearGradient id="SVGID_9_" gradientUnits="userSpaceOnUse" x1="125.2144" y1="32.2012" x2="340.3245" y2="246.2358">
		<stop  offset="0.5605" style="stop-color:#EFAA3A"/>
		<stop  offset="0.853" style="stop-color:#F3C33A"/>
	</linearGradient>
	<polygon opacity="0.7" fill="url(#SVGID_9_)" points="0,126.695 353.084,209.896 439.277,125.611 109.303,69.68 	"/>
	<linearGradient id="SVGID_10_" gradientUnits="userSpaceOnUse" x1="353.0845" y1="179.2129" x2="439.2769" y2="179.2129">
		<stop  offset="0" style="stop-color:#F8EDE1"/>
		<stop  offset="0.6852" style="stop-color:#FAE293"/>
	</linearGradient>
	<polygon opacity="0.85" fill="url(#SVGID_10_)" points="353.084,209.896 353.275,232.814 439.277,145.373 439.277,125.611 	"/>
</g>
<linearGradient id="SVGID_11_" gradientUnits="userSpaceOnUse" x1="392.6294" y1="209.3799" x2="478.8228" y2="209.3799">
	<stop  offset="0.0241" style="stop-color:#DEEAEF"/>
	<stop  offset="0.6748" style="stop-color:#98C4E1"/>
	<stop  offset="1" style="stop-color:#72B9DE"/>
</linearGradient>
<polygon opacity="0.9" fill="url(#SVGID_11_)" points="392.629,242.987 392.82,265.904 478.823,172.618 478.823,152.856 "/>
<g opacity="0.75">
	<g>
		<path fill="#F1F9FD" d="M334.225,140.886c-63.918,51.873-194.491,18.737-194.491,18.737L0,126.695l109.303-52.442l130.108,22.054
			c0,0,103.74,37.503,206.54-46.39L334.225,140.886z"/>
		<linearGradient id="SVGID_12_" gradientUnits="userSpaceOnUse" x1="322.7915" y1="89.6851" x2="445.9507" y2="89.6851">
			<stop  offset="0" style="stop-color:#FFFFFF"/>
			<stop  offset="0.2805" style="stop-color:#EBF7FD"/>
		</linearGradient>
		<polygon fill="url(#SVGID_12_)" points="436.804,38.484 322.792,125.337 334.225,140.886 445.951,49.917 		"/>
		<path fill="#B9DDE3" d="M322.792,125.337c-53.903,47.73-183.057,18.279-183.057,18.279L0,113.892v12.804l139.734,32.928
			c0,0,130.572,33.136,194.491-18.737L322.792,125.337z"/>
	</g>
	<linearGradient id="SVGID_13_" gradientUnits="userSpaceOnUse" x1="150.2544" y1="6.0435" x2="443.8778" y2="308.271">
		<stop  offset="0" style="stop-color:#C5E8EF"/>
		<stop  offset="0.3373" style="stop-color:#D3ECF1"/>
	</linearGradient>
	<path fill="url(#SVGID_13_)" d="M139.734,143.616L0,113.892l109.303-55.644l104.756,14.074c0,0,148.762,21.725,222.746-33.837
		l-114.013,86.853C268.888,173.067,139.734,143.616,139.734,143.616z"/>
</g>
<defs>
	<filter id="Adobe_OpacityMaskFilter_3_" filterUnits="userSpaceOnUse" x="0" y="159.623" width="439.277" height="144.004">
		<feFlood  style="flood-color:white;flood-opacity:1" result="back"/>
		<feBlend  in="SourceGraphic" in2="back" mode="normal"/>
	</filter>
</defs>
<mask maskUnits="userSpaceOnUse" x="0" y="159.623" width="439.277" height="144.004" id="SVGID_14_">
	<g filter="url(#Adobe_OpacityMaskFilter_3_)">
		<defs>
			<filter id="Adobe_OpacityMaskFilter_4_" filterUnits="userSpaceOnUse" x="0" y="159.623" width="439.277" height="144.004">
				<feFlood  style="flood-color:white;flood-opacity:1" result="back"/>
				<feBlend  in="SourceGraphic" in2="back" mode="normal"/>
			</filter>
		</defs>
		<mask maskUnits="userSpaceOnUse" x="0" y="159.623" width="439.277" height="144.004" id="SVGID_14_">
			<g filter="url(#Adobe_OpacityMaskFilter_4_)">
			</g>
		</mask>
		<linearGradient id="SVGID_15_" gradientUnits="userSpaceOnUse" x1="0" y1="231.625" x2="439.2769" y2="231.625">
			<stop  offset="0" style="stop-color:#FFFFFF"/>
			<stop  offset="1" style="stop-color:#999999"/>
		</linearGradient>
		<polygon mask="url(#SVGID_14_)" fill="url(#SVGID_15_)" points="439.277,303.627 439.277,278.476 0,159.623 0,175.629 		"/>
	</g>
</mask>
<linearGradient id="SVGID_16_" gradientUnits="userSpaceOnUse" x1="0" y1="231.625" x2="439.2769" y2="231.625">
	<stop  offset="0" style="stop-color:#95CCEE"/>
	<stop  offset="1" style="stop-color:#95CCEE"/>
</linearGradient>
<polygon fill="url(#SVGID_16_)" points="439.277,303.627 439.277,278.476 0,159.623 0,175.629 "/>
</svg>
